{"count":1098710,"next":"http://www.4byte.directory/api/v1/signatures/?format=json&page=2","previous":null,"results":[{"id":1131692,"created_at":"2025-03-03T11:19:44.099603Z","text_signature":"transferToStrategy(address,uint256,uint256)","hex_signature":"0xba8bfa2a","bytes_signature":"ºú*"},{"id":1131691,"created_at":"2025-03-03T09:40:25.099544Z","text_signature":"setWhitelistedTargets(address[],bool)","hex_signature":"0x23f4986e","bytes_signature":"#ôn"},{"id":1131690,"created_at":"2025-03-03T09:40:25.093848Z","text_signature":"setFees(bytes32[],uint256[])","hex_signature":"0x9e69bee9","bytes_signature":"i¾é"},{"id":1131689,"created_at":"2025-03-03T09:40:25.086747Z","text_signature":"isWhitelistedCaller(address)","hex_signature":"0xcabfa284","bytes_signature":"Ê¿¢"},{"id":1131688,"created_at":"2025-03-03T09:40:25.076995Z","text_signature":"feeRegistry(bytes32)","hex_signature":"0x8d98f270","bytes_signature":"òp"},{"id":1131687,"created_at":"2025-03-03T09:37:27.644151Z","text_signature":"sausage()","hex_signature":"0x9ae8aff9","bytes_signature":"è¯ù"},{"id":1131686,"created_at":"2025-03-03T09:37:14.526681Z","text_signature":"saoosage()","hex_signature":"0x1d164e4c","bytes_signature":"\u001d\u0016NL"},{"id":1131685,"created_at":"2025-03-03T09:36:42.180646Z","text_signature":"tanguy()","hex_signature":"0x0fb11d92","bytes_signature":"\u000f±\u001d"},{"id":1131684,"created_at":"2025-03-03T08:45:11.660015Z","text_signature":"TokenVerificationFailed()","hex_signature":"0x5a086a3d","bytes_signature":"Z\bj="},{"id":1131683,"created_at":"2025-03-03T05:28:47.941586Z","text_signature":"createStrategy(address,bytes,uint256)","hex_signature":"0xad35530b","bytes_signature":"­5S\u000b"},{"id":1131682,"created_at":"2025-03-02T11:19:38.685998Z","text_signature":"compoundSkim()","hex_signature":"0x718f87f6","bytes_signature":"qö"},{"id":1131680,"created_at":"2025-02-27T15:52:16.157366Z","text_signature":"keepItSafe(bool)","hex_signature":"0x9630f389","bytes_signature":"0ó"},{"id":1131679,"created_at":"2025-02-27T15:01:14.044432Z","text_signature":"FilledRelay(bytes32,bytes32,uint256,uint256,uint256,uint256,uint256,uint32,uint32,bytes32,bytes32,bytes32,bytes32,bytes32,(bytes32,bytes32,uint256,uint8))","hex_signature":"0x44b559f1","bytes_signature":"DµYñ"},{"id":1131678,"created_at":"2025-02-27T14:55:44.019000Z","text_signature":"FundsDeposited(bytes32,bytes32,uint256,uint256,uint256,uint256,uint32,uint32,uint32,bytes32,bytes32,bytes32,bytes)","hex_signature":"0x32ed1a40","bytes_signature":"2í\u001a@"},{"id":1131677,"created_at":"2025-02-27T14:55:12.697473Z","text_signature":"SetL2TokenBridge(address,address)","hex_signature":"0xf3dc137d","bytes_signature":"óÜ\u0013}"},{"id":1131676,"created_at":"2025-02-27T14:52:05.795472Z","text_signature":"TokensBridged(uint256,uint256,uint32,bytes32,address)","hex_signature":"0xfa7fa7cf","bytes_signature":"ú§Ï"},{"id":1131675,"created_at":"2025-02-27T09:30:26.400269Z","text_signature":"forceBurn(address,uint256,string)","hex_signature":"0x0bf131ca","bytes_signature":"\u000bñ1Ê"},{"id":1131674,"created_at":"2025-02-27T08:10:49.191332Z","text_signature":"ExceedsMaxNetworkLimit()","hex_signature":"0xf77e0318","bytes_signature":"÷~\u0003\u0018"},{"id":1131673,"created_at":"2025-02-27T06:47:58.537861Z","text_signature":"setValidatorTaskBatchSize(uint16)","hex_signature":"0xb6d247c8","bytes_signature":"¶ÒGÈ"},{"id":1131672,"created_at":"2025-02-27T06:47:58.529239Z","text_signature":"initializeRoleRegistry(address)","hex_signature":"0x215b5d8e","bytes_signature":"![]"},{"id":1131671,"created_at":"2025-02-27T06:47:43.403945Z","text_signature":"__revertEnumerableRolesUnauthorized()","hex_signature":"0x18ea8ade","bytes_signature":"\u0018êÞ"},{"id":1131670,"created_at":"2025-02-27T06:47:43.372330Z","text_signature":"onlyProtocolUpgrader(address)","hex_signature":"0x5006bb7b","bytes_signature":"P\u0006»{"},{"id":1131669,"created_at":"2025-02-27T06:47:43.341007Z","text_signature":"roleHolders(bytes32)","hex_signature":"0x75223fed","bytes_signature":"u\"?í"},{"id":1131668,"created_at":"2025-02-27T05:52:53.860718Z","text_signature":"registerWithSignature((string,address,bool,address,bytes32,bytes,uint256,uint256),bytes)","hex_signature":"0xadba7a51","bytes_signature":"­ºzQ"},{"id":1131667,"created_at":"2025-02-27T02:47:17.985183Z","text_signature":"proposeL2Output(bytes32,uint256,bytes32,uint256,bytes)","hex_signature":"0xa9efd6b8","bytes_signature":"©ïÖ¸"},{"id":1131666,"created_at":"2025-02-27T00:41:37.718893Z","text_signature":"batchTransferFrom(address,address[],uint256[][])","hex_signature":"0x6b17d8d6","bytes_signature":"k\u0017ØÖ"},{"id":1131665,"created_at":"2025-02-27T00:40:02.808978Z","text_signature":"createTokenBoundAccount(uint256)","hex_signature":"0x54faa01c","bytes_signature":"Tú \u001c"},{"id":1131664,"created_at":"2025-02-26T23:56:15.914888Z","text_signature":"mintBatches(address[],uint256[])","hex_signature":"0xd1c80259","bytes_signature":"ÑÈ\u0002Y"},{"id":1131663,"created_at":"2025-02-26T21:18:27.700369Z","text_signature":"AlreadySet()","hex_signature":"0xa741a045","bytes_signature":"§A E"},{"id":1131662,"created_at":"2025-02-26T21:18:10.589553Z","text_signature":"NotNetwork()","hex_signature":"0x8f54ee5c","bytes_signature":"Tî\\"},{"id":1131661,"created_at":"2025-02-26T21:12:12.590997Z","text_signature":"OperatorNotRegistered()","hex_signature":"0x25ec6c1f","bytes_signature":"%ìl\u001f"},{"id":1131660,"created_at":"2025-02-26T21:10:52.799219Z","text_signature":"BlipsAndChitz()","hex_signature":"0x54606822","bytes_signature":"T`h\""},{"id":1131659,"created_at":"2025-02-26T21:04:40.400242Z","text_signature":"ShakeMaster()","hex_signature":"0x15bb86af","bytes_signature":"\u0015»¯"},{"id":1131658,"created_at":"2025-02-26T21:03:35.593307Z","text_signature":"RunTheJewels()","hex_signature":"0xbe401e5c","bytes_signature":"¾@\u001e\\"},{"id":1131657,"created_at":"2025-02-26T20:53:26.132161Z","text_signature":"RTJ3()","hex_signature":"0x7adcb7e8","bytes_signature":"zÜ·è"},{"id":1131656,"created_at":"2025-02-26T15:35:10.231056Z","text_signature":"anyToAnySwap(address[],bool[],bool[],address,address,uint256,uint256)","hex_signature":"0xffa5210a","bytes_signature":"ÿ¥!\n"},{"id":1131655,"created_at":"2025-02-26T13:42:36.070515Z","text_signature":"KeepItSafe12345(bool)","hex_signature":"0x330dc7a1","bytes_signature":"3\rÇ¡"},{"id":1131654,"created_at":"2025-02-26T10:27:56.028396Z","text_signature":"InvalidFact()","hex_signature":"0x4801faa3","bytes_signature":"H\u0001ú£"},{"id":1131653,"created_at":"2025-02-26T10:25:53.403955Z","text_signature":"KeepItSafe1234(bool)","hex_signature":"0xa8a20cbf","bytes_signature":"¨¢\f¿"},{"id":1131652,"created_at":"2025-02-26T09:18:40.150333Z","text_signature":"KeepItSafe123(bool)","hex_signature":"0xa4f225d2","bytes_signature":"¤ò%Ò"},{"id":1131651,"created_at":"2025-02-26T09:12:08.085277Z","text_signature":"afsafsdfsdfs()","hex_signature":"0x28cca97c","bytes_signature":"(Ì©|"},{"id":1131650,"created_at":"2025-02-26T09:07:10.374723Z","text_signature":"deleteName11111()","hex_signature":"0x53c28e05","bytes_signature":"SÂ\u0005"},{"id":1131649,"created_at":"2025-02-26T09:04:10.360513Z","text_signature":"deleteName12345()","hex_signature":"0xc1d92805","bytes_signature":"ÁÙ(\u0005"},{"id":1131648,"created_at":"2025-02-26T08:56:32.172737Z","text_signature":"unsignOrder((address,address,address,uint256,uint256,uint32,bytes32,uint256,bytes32,bool,bytes32,bytes32))","hex_signature":"0x5a66c223","bytes_signature":"ZfÂ#"},{"id":1131647,"created_at":"2025-02-26T08:37:08.953476Z","text_signature":"deleteName1233()","hex_signature":"0x6e49e383","bytes_signature":"nIã"},{"id":1131646,"created_at":"2025-02-26T08:35:56.679617Z","text_signature":"deleteName1235()","hex_signature":"0x054a23a6","bytes_signature":"\u0005J#¦"},{"id":1131645,"created_at":"2025-02-26T08:21:21.306611Z","text_signature":"deleteName123()","hex_signature":"0x039d07d1","bytes_signature":"\u0003\u0007Ñ"},{"id":1131643,"created_at":"2025-02-26T06:30:26.404191Z","text_signature":"registerChannel(string,uint256)","hex_signature":"0xae1c3189","bytes_signature":"®\u001c1"},{"id":1131642,"created_at":"2025-02-26T06:30:26.401013Z","text_signature":"enableChannel(uint256)","hex_signature":"0x76b764d0","bytes_signature":"v·dÐ"},{"id":1131641,"created_at":"2025-02-26T06:30:26.395927Z","text_signature":"disableChannel(uint256)","hex_signature":"0x97a655fb","bytes_signature":"¦Uû"},{"id":1131640,"created_at":"2025-02-26T06:30:26.363214Z","text_signature":"changeChannelName(string,uint256)","hex_signature":"0x067375a9","bytes_signature":"\u0006su©"},{"id":1131639,"created_at":"2025-02-25T04:13:23.789397Z","text_signature":"InvalidExtraDataLength(bytes32)","hex_signature":"0xd232fd2c","bytes_signature":"Ò2ý,"},{"id":1131638,"created_at":"2025-02-24T15:43:56.729310Z","text_signature":"ConsiderationLengthNotEqualToTotalOriginal()","hex_signature":"0x2165628a","bytes_signature":"!eb"},{"id":1131637,"created_at":"2025-02-24T15:31:46.630950Z","text_signature":"rejectApplicant(bytes32)","hex_signature":"0xab298f0b","bytes_signature":"«)\u000b"},{"id":1131636,"created_at":"2025-02-24T14:27:36.029868Z","text_signature":"optimalDepositAmount(address,uint256,uint256)","hex_signature":"0x5e176d21","bytes_signature":"^\u0017m!"},{"id":1131635,"created_at":"2025-02-24T14:27:36.027771Z","text_signature":"optimalBorrowAmount(address,uint256,uint256)","hex_signature":"0x5555db0d","bytes_signature":"UUÛ\r"},{"id":1131634,"created_at":"2025-02-24T14:27:36.025639Z","text_signature":"swapTokenTo(address,uint256,address,address)","hex_signature":"0xb86782fd","bytes_signature":"¸gý"},{"id":1131633,"created_at":"2025-02-24T14:27:36.023534Z","text_signature":"getLPTokenAmountInBaseToken(address,uint256,address)","hex_signature":"0x27f6daf0","bytes_signature":"'öÚð"},{"id":1131632,"created_at":"2025-02-24T14:27:36.008292Z","text_signature":"getBorrowInfo(uint256,address,uint256)","hex_signature":"0x1e62dc24","bytes_signature":"\u001ebÜ$"},{"id":1131631,"created_at":"2025-02-24T14:27:35.999364Z","text_signature":"repayBorrow(uint256,address,uint256,bool)","hex_signature":"0xd9286344","bytes_signature":"Ù(cD"},{"id":1131630,"created_at":"2025-02-24T14:27:35.995585Z","text_signature":"liquidation(uint256,address,address,uint256)","hex_signature":"0xa477757f","bytes_signature":"¤wu"},{"id":1131629,"created_at":"2025-02-24T14:27:35.988143Z","text_signature":"emergencyWithdraw(uint256,address,uint256,uint256)","hex_signature":"0xd4267d0f","bytes_signature":"Ô&}\u000f"},{"id":1131628,"created_at":"2025-02-24T14:27:35.986045Z","text_signature":"withdrawLPToken(uint256,address,uint256,uint256,uint256)","hex_signature":"0x74d5d657","bytes_signature":"tÕÖW"},{"id":1131627,"created_at":"2025-02-24T14:27:35.983778Z","text_signature":"withdraw(uint256,address,uint256,address,uint256,uint256)","hex_signature":"0x5a40b25e","bytes_signature":"Z@²^"},{"id":1131626,"created_at":"2025-02-24T14:27:35.981736Z","text_signature":"depositLPToken(uint256,address,address,uint256,address,uint256)","hex_signature":"0xb8be243e","bytes_signature":"¸¾$>"},{"id":1131625,"created_at":"2025-02-24T14:27:35.979698Z","text_signature":"deposit(uint256,address,address,uint256,address,uint256)","hex_signature":"0xde45cdb3","bytes_signature":"ÞEÍ³"},{"id":1131624,"created_at":"2025-02-24T14:27:35.976443Z","text_signature":"pendingLPAmount(uint256,address)","hex_signature":"0x358cdc7a","bytes_signature":"5Üz"},{"id":1131623,"created_at":"2025-02-24T14:27:35.972878Z","text_signature":"getPoollpToken(uint256)","hex_signature":"0xd4aeb970","bytes_signature":"Ô®¹p"},{"id":1131622,"created_at":"2025-02-24T14:27:35.970627Z","text_signature":"getPoolCollateralToken(uint256)","hex_signature":"0x44177160","bytes_signature":"D\u0017q`"},{"id":1131621,"created_at":"2025-02-24T14:27:35.968254Z","text_signature":"getBorrowAmountInBaseToken(uint256,address)","hex_signature":"0x4c97b3f8","bytes_signature":"L³ø"},{"id":1131620,"created_at":"2025-02-24T14:27:35.965850Z","text_signature":"getBorrowInfo(uint256,address)","hex_signature":"0x2976d638","bytes_signature":")vÖ8"},{"id":1131619,"created_at":"2025-02-24T14:27:35.938171Z","text_signature":"setLiquidationFee(address,uint256,uint256)","hex_signature":"0xa95a9920","bytes_signature":"©Z "},{"id":1131618,"created_at":"2025-02-24T14:27:35.928578Z","text_signature":"getLiquidationFee(address,uint256)","hex_signature":"0xbce0c21d","bytes_signature":"¼àÂ\u001d"},{"id":1131617,"created_at":"2025-02-24T14:27:35.925623Z","text_signature":"setClaimFee(address,uint256,uint256)","hex_signature":"0x5b6a6a0a","bytes_signature":"[jj\n"},{"id":1131616,"created_at":"2025-02-24T14:27:35.922373Z","text_signature":"getClaimFee(address,uint256)","hex_signature":"0xeaac4cba","bytes_signature":"ê¬Lº"},{"id":1131615,"created_at":"2025-02-24T14:27:35.919283Z","text_signature":"setRefundFee(address,uint256,uint256)","hex_signature":"0xbcd14d99","bytes_signature":"¼ÑM"},{"id":1131614,"created_at":"2025-02-24T14:27:35.916109Z","text_signature":"getRefundFee(address,uint256)","hex_signature":"0x13a63e60","bytes_signature":"\u0013¦>`"},{"id":1131613,"created_at":"2025-02-24T14:27:35.912825Z","text_signature":"setWithdrawFee(address,uint256,uint256)","hex_signature":"0x00b771fc","bytes_signature":"\u0000·qü"},{"id":1131612,"created_at":"2025-02-24T14:27:35.908071Z","text_signature":"getWithdrawFee(address,uint256)","hex_signature":"0xfbfe316e","bytes_signature":"ûþ1n"},{"id":1131611,"created_at":"2025-02-24T14:27:35.891211Z","text_signature":"setDepositFee(address,uint256,uint256)","hex_signature":"0x0b9cdb21","bytes_signature":"\u000bÛ!"},{"id":1131610,"created_at":"2025-02-24T14:27:35.888657Z","text_signature":"getDepositFee(address,uint256)","hex_signature":"0xa7825373","bytes_signature":"§Ss"},{"id":1131609,"created_at":"2025-02-24T14:27:35.878890Z","text_signature":"setFarmPoolFactor(address,uint256,uint256)","hex_signature":"0x2fafcd75","bytes_signature":"/¯Íu"},{"id":1131608,"created_at":"2025-02-24T14:27:35.876513Z","text_signature":"getFarmPoolFactor(address,uint256)","hex_signature":"0x3d4cf148","bytes_signature":"=LñH"},{"id":1131607,"created_at":"2025-02-24T14:27:35.874296Z","text_signature":"setLiquidationFactor(address,uint256,uint256)","hex_signature":"0x759ec471","bytes_signature":"uÄq"},{"id":1131606,"created_at":"2025-02-24T14:27:35.871789Z","text_signature":"getLiquidationFactor(address,uint256)","hex_signature":"0xbfc7c409","bytes_signature":"¿ÇÄ\t"},{"id":1131605,"created_at":"2025-02-24T14:27:35.869524Z","text_signature":"setBorrowFactor(address,uint256,uint256)","hex_signature":"0xe5a35f89","bytes_signature":"å£_"},{"id":1131604,"created_at":"2025-02-24T14:27:35.867429Z","text_signature":"getBorrowFactor(address,uint256)","hex_signature":"0x15f42271","bytes_signature":"\u0015ô\"q"},{"id":1131603,"created_at":"2025-02-24T14:27:35.865450Z","text_signature":"pendingBorrowRewards(uint256)","hex_signature":"0xeed0ddd2","bytes_signature":"îÐÝÒ"},{"id":1131602,"created_at":"2025-02-24T14:27:35.862138Z","text_signature":"pendingBorrowAmount(uint256)","hex_signature":"0xd0f5332b","bytes_signature":"Ðõ3+"},{"id":1131601,"created_at":"2025-02-24T14:27:35.858976Z","text_signature":"pendingSupplyAmount(address)","hex_signature":"0x2d90aa31","bytes_signature":"-ª1"},{"id":1131600,"created_at":"2025-02-24T14:27:35.836841Z","text_signature":"mintDonate(uint256)","hex_signature":"0x9fadbc36","bytes_signature":"­¼6"},{"id":1131599,"created_at":"2025-02-24T14:27:35.824759Z","text_signature":"borrowInfoLength()","hex_signature":"0xac931307","bytes_signature":"¬\u0013\u0007"},{"id":1131598,"created_at":"2025-02-24T14:27:35.821359Z","text_signature":"emergencyRepay(uint256)","hex_signature":"0x78960cac","bytes_signature":"x\f¬"},{"id":1131597,"created_at":"2025-02-24T14:27:35.815265Z","text_signature":"getBaseTokenPerLPToken()","hex_signature":"0x84c10f68","bytes_signature":"Á\u000fh"},{"id":1131596,"created_at":"2025-02-24T14:27:35.811236Z","text_signature":"getBorrowTotal()","hex_signature":"0x1dd9dbf7","bytes_signature":"\u001dÙÛ÷"},{"id":1131595,"created_at":"2025-02-24T14:27:35.807577Z","text_signature":"getBorrowId(address,uint256,address,bool)","hex_signature":"0x6c07e39d","bytes_signature":"l\u0007ã"},{"id":1131594,"created_at":"2025-02-24T14:27:35.804619Z","text_signature":"getBorrowId(address,uint256,address)","hex_signature":"0xd28f4f38","bytes_signature":"ÒO8"},{"id":1131593,"created_at":"2025-02-24T14:27:35.795904Z","text_signature":"setMintWhitelist(address,bool)","hex_signature":"0x19b69036","bytes_signature":"\u0019¶6"},{"id":1131592,"created_at":"2025-02-24T14:27:35.790619Z","text_signature":"checkLPTokenPriceLimit(address,bool)","hex_signature":"0xbc4932ff","bytes_signature":"¼I2ÿ"},{"id":1131591,"created_at":"2025-02-24T14:27:35.787447Z","text_signature":"getPriceSlippage(address)","hex_signature":"0xa26335d2","bytes_signature":"¢c5Ò"}]}